{
    "requests": [
        {
            "name": "sample-request",
            "sql": "SELECT * FROM api_tokens",
            "requiredApiTokenLevel": 1
        },
        {
            "name": "sample-request2",
            "sql": "SELECT * FROM api_tokens WHERE is_active = '#isactive#'",
            "requiredApiTokenLevel": 0,
            "parameters": [
                {
                    "key": "isactive",
                    "placeholder": "isactive"
                }
            ]
        }
    ]
}
